Corruption_happiness_list – STA 9750 Submission Material
…
The following objects are masked from 'package:stats':

    filter, lag

The following objects are masked from 'package:base':

    intersect, setdiff, setequal, union

library(tibble)

df <- read_excel("/Users/ViktoriaAxelsson/Desktop/WHR25_Data_Figure_2.1v3 (1).xlsx")
df

# A tibble: 1,969 × 13
    Year  Rank `Country name` `Life evaluation (3-year average)` `Lower whisker`
   <dbl> <dbl> <chr>                                       <dbl>           <dbl>
 1  2024   147 Afghanistan                                  1.36            1.30
 2  2023   143 Afghanistan                                  1.72            1.67
 3  2022   137 Afghanistan                                  1.86            1.80
 4  2021   146 Afghanistan                                  2.40            2.34
 5  2020   150 Afghanistan                                  2.52            2.45
 6  2019   153 Afghanistan                                  2.57            2.51
 7  2018   154 Afghanistan                                  3.20           NA   
 8  2017   145 Afghanistan                                  3.63           NA   
 9  2016   141 Afghanistan                                  3.79           NA   
10  2015   154 Afghanistan                                  3.36           NA   
# ℹ 1,959 more rows
# ℹ 8 more variables: `Upper whisker` <dbl>,
#   `Explained by: Log GDP per capita` <dbl>,
#   `Explained by: Social support` <dbl>,
#   `Explained by: Healthy life expectancy` <dbl>,
#   `Explained by: Freedom to make life choices` <dbl>,
#   `Explained by: Generosity` <dbl>, …
…
